[0.5365393757820129, 1.0, -0.41926509141921997, 2.0, 10.0, 0.0, 4.0, 0.5278935432434082, -0.2171318680047989, 0.7729700207710266, 38.0]
[0.3906700313091278, 4.0, -0.030303768813610077, 2.0, 3.0, 0.0, 4.0, -0.1447920799255371, -0.2171318680047989, 1.5799793004989624, 38.0]
[-1.068023443222046, 3.0, -0.030303768813610077, 4.0, 6.0, 3.0, 4.0, -0.1447920799255371, -0.2171318680047989, -0.03403923660516739, 38.0]
[1.7764289379119873, 5.0, -3.1419942378997803, 2.0, 7.0, 0.0, 4.0, -0.1447920799255371, -0.2171318680047989, -1.2445530891418457, 38.0]
[-1.5056315660476685, -1.0, -0.030303768813610077, 4.0, -1.0, 3.0, 4.0, -0.1447920799255371, -0.2171318680047989, -0.03403923660516739, 38.0]
[0.901212751865387, 3.0, -0.8082264065742493, 5.0, 13.0, 1.0, 2.0, -0.1447920799255371, -0.2171318680047989, -0.03403923660516739, 38.0]
[0.09893134236335754, 5.0, 1.1365801095962524, 3.0, 3.0, 1.0, 1.0, -0.1447920799255371, -0.2171318680047989, -0.03403923660516739, 38.0]
[0.1718660145998001, 5.0, 1.1365801095962524, 2.0, 0.0, 5.0, 4.0, -0.1447920799255371, -0.2171318680047989, -0.03403923660516739, 38.0]
[-0.5574807524681091, 3.0, -0.41926509141921997, 4.0, 0.0, 1.0, 4.0, -0.1447920799255371, -0.2171318680047989, -0.03403923660516739, 38.0]
[0.02599666640162468, 5.0, 0.3586575388908386, 2.0, 13.0, 0.0, 4.0, -0.1447920799255371, -0.2171318680047989, 2.386988401412964, 38.0]
[-1.068023443222046, 3.0, -2.3640716075897217, 4.0, 5.0, 1.0, 4.0, -0.1447920799255371, -0.2171318680047989, -1.3252540826797485, 12.0]
[0.901212751865387, 4.0, -0.030303768813610077, 2.0, 2.0, 0.0, 4.0, -0.1447920799255371, -0.2171318680047989, 1.5799793004989624, 38.0]
[-0.9221541285514832, 3.0, -0.030303768813610077, 4.0, 7.0, 3.0, 4.0, -0.1447920799255371, -0.2171318680047989, -0.03403923660516739, 38.0]
[-1.068023443222046, 3.0, 1.5255414247512817, 4.0, 9.0, 3.0, 4.0, -0.1447920799255371, -0.2171318680047989, 1.5799793004989624, 38.0]
[-1.2138928174972534, 3.0, -0.41926509141921997, 4.0, 6.0, 2.0, 4.0, -0.1447920799255371, -0.2171318680047989, -0.03403923660516739, 3.0]
[-1.5056315660476685, 3.0, -0.030303768813610077, 3.0, 0.0, 2.0, 4.0, -0.1447920799255371, -0.2171318680047989, -0.03403923660516739, 28.0]
[0.02599666640162468, 3.0, -0.030303768813610077, 2.0, 3.0, 0.0, 4.0, -0.1447920799255371, -0.2171318680047989, 0.3694653809070587, 38.0]
[1.2658861875534058, 3.0, -0.41926509141921997, 2.0, 13.0, 0.0, 4.0, -0.1447920799255371, -0.2171318680047989, -0.03403923660516739, 38.0]
[-1.068023443222046, 3.0, -0.41926509141921997, 4.0, 2.0, 1.0, 4.0, -0.1447920799255371, -0.2171318680047989, -0.03403923660516739, 38.0]
[-1.2138928174972534, 3.0, -0.030303768813610077, 4.0, 5.0, 3.0, 4.0, -0.1447920799255371, -0.2171318680047989, -0.03403923660516739, 38.0]
